[gd_resource type="SpriteFrames" load_steps=8 format=2]

[ext_resource path="res://Assets/player/platformChar_climb1.png" type="Texture" id=1]
[ext_resource path="res://Assets/player/platformChar_duck.png" type="Texture" id=2]
[ext_resource path="res://Assets/player/platformChar_walk2.png" type="Texture" id=3]
[ext_resource path="res://Assets/player/platformChar_walk1.png" type="Texture" id=4]
[ext_resource path="res://Assets/player/platformChar_idle.png" type="Texture" id=5]
[ext_resource path="res://Assets/player/platformChar_jump.png" type="Texture" id=6]
[ext_resource path="res://Assets/player/platformChar_climb2.png" type="Texture" id=7]

[resource]
animations = [ {
"frames": [ ExtResource( 5 ) ],
"loop": true,
"name": "idle",
"speed": 5.0
}, {
"frames": [ ExtResource( 4 ), ExtResource( 3 ) ],
"loop": true,
"name": "walk",
"speed": 5.0
}, {
"frames": [ ExtResource( 1 ), ExtResource( 7 ) ],
"loop": true,
"name": "climb",
"speed": 5.0
}, {
"frames": [ ExtResource( 6 ) ],
"loop": true,
"name": "air",
"speed": 5.0
}, {
"frames": [ ExtResource( 2 ) ],
"loop": true,
"name": "crouch",
"speed": 5.0
} ]
